Joins, Split-Apply-Combine & MCPs
…
---
## Data example

```r
library(readxl)
clinical <- read_excel('lecture_joinsmodels2_data/BreastCancer_Clinical.xlsx') %>% 
  set_names(str_replace_all(names(.), '[ -]+', '_'))
proteome <- read_excel('lecture_joinsmodels2_data/BreastCancer_Expression.xlsx') %>% 
  set_names(str_replace_all(names(.), '[ -]+', '_'))
```

.pull-left[

```
# A tibble: 105 x 30
   Complete_TCGA_ID Gender Age_at_Initial_… ER_Status PR_Status
   <chr>            <chr>             <dbl> <chr>     <chr>    
 1 TCGA-A2-A0T2     FEMALE               66 Negative  Negative 
 2 TCGA-A2-A0CM     FEMALE               40 Negative  Negative 
 3 TCGA-BH-A18V     FEMALE               48 Negative  Negative 
 4 TCGA-BH-A18Q     FEMALE               56 Negative  Negative 
 5 TCGA-BH-A0E0     FEMALE               38 Negative  Negative 
 6 TCGA-A7-A0CE     FEMALE               57 Negative  Negative 
 7 TCGA-D8-A142     FEMALE               74 Negative  Negative 
 8 TCGA-A2-A0D0     FEMALE               60 Negative  Negative 
 9 TCGA-AO-A0J6     FEMALE               61 Negative  Negative 
10 TCGA-A2-A0YM     FEMALE               67 Negative  Negative 
# ... with 95 more rows, and 25 more variables: HER2_Final_Status <chr>,
#   Tumor <chr>, Tumor_T1_Coded <chr>, Node <chr>, Node_Coded <chr>,
#   Metastasis <chr>, Metastasis_Coded <chr>, AJCC_Stage <chr>,
#   Converted_Stage <chr>, Survival_Data_Form <chr>, Vital_Status <chr>,
#   Days_to_Date_of_Last_Contact <dbl>, Days_to_date_of_Death <dbl>,
#   OS_event <dbl>, OS_Time <dbl>, PAM50_mRNA <chr>,
#   SigClust_Unsupervised_mRNA <dbl>, SigClust_Intrinsic_mRNA <dbl>,
#   miRNA_Clusters <dbl>, methylation_Clusters <dbl>, RPPA_Clusters <chr>,
#   CN_Clusters <dbl>, `Integrated_Clusters_(with_PAM50)` <dbl>,
#   `Integrated_Clusters_(no_exp)` <dbl>,
#   `Integrated_Clusters_(unsup_exp)` <dbl>
```
]
.pull-right[

```
# A tibble: 83 x 11
   TCGA_ID NP_958782 NP_958785 NP_958786 NP_000436 NP_958781 NP_958780
   <chr>       <dbl>     <dbl>     <dbl>     <dbl>     <dbl>     <dbl>
 1 TCGA-A…     1.10      1.11      1.11      1.11      1.12      1.11 
 2 TCGA-C…     2.61      2.65      2.65      2.65      2.65      2.65 
 3 TCGA-A…    -0.660    -0.649    -0.654    -0.632    -0.640    -0.654
 4 TCGA-B…     0.195     0.215     0.215     0.205     0.215     0.215
 5 TCGA-C…    -0.494    -0.504    -0.501    -0.510    -0.504    -0.504
 6 TCGA-C…     2.77      2.78      2.78      2.80      2.79      2.78 
 7 TCGA-E…     0.863     0.870     0.870     0.866     0.870     0.870
 8 TCGA-C…     1.41      1.41      1.41      1.41      1.41      1.41 
 9 TCGA-A…     1.19      1.19      1.19      1.19      1.20      1.19 
10 TCGA-A…     1.10      1.10      1.10      1.10      1.09      1.10 
# ... with 73 more rows, and 4 more variables: NP_958783 <dbl>,
#   NP_958784 <dbl>, NP_112598 <dbl>, NP_001611 <dbl>
```
…
---
## Data example

```r
library(readxl)
clinical <- read_excel('lecture_joinsmodels2_data/BreastCancer_Clinical.xlsx') %>% 
  set_names(str_replace_all(names(.), '[ -]+', '_'))
proteome <- read_excel('lecture_joinsmodels2_data/BreastCancer_Expression.xlsx') %>% 
  set_names(str_replace_all(names(.), '[ -]+', '_'))
```

.pull-left[

```
# A tibble: 105 x 2
   Complete_TCGA_ID Gender
   <chr>            <chr> 
 1 TCGA-A2-A0T2     FEMALE
 2 TCGA-A2-A0CM     FEMALE
 3 TCGA-BH-A18V     FEMALE
 4 TCGA-BH-A18Q     FEMALE
 5 TCGA-BH-A0E0     FEMALE
 6 TCGA-A7-A0CE     FEMALE
 7 TCGA-D8-A142     FEMALE
 8 TCGA-A2-A0D0     FEMALE
 9 TCGA-AO-A0J6     FEMALE
10 TCGA-A2-A0YM     FEMALE
# ... with 95 more rows
```
]
.pull-right[

```
# A tibble: 83 x 2
   TCGA_ID      NP_958782
   <chr>            <dbl>
 1 TCGA-AO-A12D     1.10 
 2 TCGA-C8-A131     2.61 
 3 TCGA-AO-A12B    -0.660
 4 TCGA-BH-A18Q     0.195
 5 TCGA-C8-A130    -0.494
 6 TCGA-C8-A138     2.77 
 7 TCGA-E2-A154     0.863
 8 TCGA-C8-A12L     1.41 
 9 TCGA-A2-A0EX     1.19 
10 TCGA-AO-A12D     1.10 
# ... with 73 more rows
```
…
We see that both have the same ID variable, but with different names and different orders

???

Let's keep only the first two columns so we can see the ID variable

---
## Inner join

```r
common_rows <- inner_join(clinical[,1:6], proteome, by=c('Complete_TCGA_ID'='TCGA_ID'))
```

```
# A tibble: 80 x 16
   Complete_TCGA_ID Gender Age_at_Initial_… ER_Status PR_Status
   <chr>            <chr>             <dbl> <chr>     <chr>    
 1 TCGA-A2-A0CM     FEMALE               40 Negative  Negative 
 2 TCGA-BH-A18Q     FEMALE               56 Negative  Negative 
 3 TCGA-A7-A0CE     FEMALE               57 Negative  Negative 
 4 TCGA-D8-A142     FEMALE               74 Negative  Negative 
 5 TCGA-AO-A0J6     FEMALE               61 Negative  Negative 
 6 TCGA-A2-A0YM     FEMALE               67 Negative  Negative 
 7 TCGA-A2-A0D2     FEMALE               45 Negative  Negative 
 8 TCGA-A2-A0SX     FEMALE               48 Negative  Negative 
 9 TCGA-AO-A0JL     FEMALE               59 Negative  Negative 
10 TCGA-AO-A12F     FEMALE               36 Negative  Negative 
# ... with 70 more rows, and 11 more variables: HER2_Final_Status <chr>,
#   NP_958782 <dbl>, NP_958785 <dbl>, NP_958786 <dbl>, NP_000436 <dbl>,
#   NP_958781 <dbl>, NP_958780 <dbl>, NP_958783 <dbl>, NP_958784 <dbl>,
#   NP_112598 <dbl>, NP_001611 <dbl>
```
…
Note that we have all the columns from both datasets, but only 80 rows, which is the common set of IDs from the two datasets
--

> If you don't include the `by` option, R will attempt to match values of any columns with the same names

---
## Left join

```r
left_rows <- left_join(clinical[,1:6], proteome, by=c('Complete_TCGA_ID'='TCGA_ID'))
```

```
# A tibble: 108 x 16
   Complete_TCGA_ID Gender Age_at_Initial_… ER_Status PR_Status
   <chr>            <chr>             <dbl> <chr>     <chr>    
 1 TCGA-A2-A0T2     FEMALE               66 Negative  Negative 
 2 TCGA-A2-A0CM     FEMALE               40 Negative  Negative 
 3 TCGA-BH-A18V     FEMALE               48 Negative  Negative 
 4 TCGA-BH-A18Q     FEMALE               56 Negative  Negative 
 5 TCGA-BH-A0E0     FEMALE               38 Negative  Negative 
 6 TCGA-A7-A0CE     FEMALE               57 Negative  Negative 
 7 TCGA-D8-A142     FEMALE               74 Negative  Negative 
 8 TCGA-A2-A0D0     FEMALE               60 Negative  Negative 
 9 TCGA-AO-A0J6     FEMALE               61 Negative  Negative 
10 TCGA-A2-A0YM     FEMALE               67 Negative  Negative 
# ... with 98 more rows, and 11 more variables: HER2_Final_Status <chr>,
#   NP_958782 <dbl>, NP_958785 <dbl>, NP_958786 <dbl>, NP_000436 <dbl>,
#   NP_958781 <dbl>, NP_958780 <dbl>, NP_958783 <dbl>, NP_958784 <dbl>,
#   NP_112598 <dbl>, NP_001611 <dbl>
```
…
